Session 3 Exploring and communicating patterns in rating data | Basics of data visualization for behavioral scientists
…
The information we generated tells us, in numbers, what we had already inferred from our graphical representation of the data, namely that most of the rating mass lies on the upper end of the scale, over points 4 and 5. In order to get more detailed information about each item, we’d have to add item to our grouping call.

rat_comp %>%
  group_by(type) %>% 
  mutate(median_split = case_when(rat > 4 ~ "5",
                                  rat < 4 ~ "1,2,3",
                                  rat == 4 ~ "4")) %>%
  group_by(item, type, median_split) %>%
  summarize(n = n()) %>% 
  mutate(freq = n / sum(n))

## `summarise()` regrouping output by 'item', 'type' (override with `.groups` argument)

## # A tibble: 732 x 5
## # Groups:   item, type [244]
##     item type       median_split     n   freq
##    <dbl> <chr>      <chr>        <int>  <dbl>
##  1     1 metaphoric 1,2,3            3 0.0469
##  2     1 metaphoric 4               13 0.203 
##  3     1 metaphoric 5               48 0.75  
##  4     2 metaphoric 1,2,3           11 0.169 
##  5     2 metaphoric 4               26 0.4   
##  6     2 metaphoric 5               28 0.431 
##  7     3 metaphoric 1,2,3           26 0.4   
##  8     3 metaphoric 4               19 0.292 
##  9     3 metaphoric 5               20 0.308 
## 10     4 metaphoric 1,2,3           12 0.185 
## # ... with 722 more rows
…
